18. Model basics
…
## [1] 2.665212

        purrr   .     ,  2        . (purrr :   )

sim1_dist <- function(a1, a2) {
  measure_distance(c(a1, a2), sim1)
}

models <- models %>%
  mutate(dist = purrr::map2_dbl(a1, a2, sim1_dist))

models

## # A tibble: 250 x 3
##        a1     a2  dist
##     <dbl>  <dbl> <dbl>
##  1  24.9   4.20  33.2 
##  2  19.4  -4.87  30.4 
##  3  11.8   4.51  22.3 
##  4  39.3   1.76  33.6 
##  5  33.6  -1.31  14.7 
##  6  28.7  -2.45  13.1 
##  7 -16.5  -4.41  59.3 
##  8  19.2  -0.742  8.31
##  9 -18.5  -3.18  53.8 
## 10  -5.14 -1.20  28.9 
## # ... with 240 more rows
…
3.2 

(residuals):      

(    ,      =  )

add_predictions()    add_residuals()    . :      .     y  .

sim1 <- sim1 %>%
  add_residuals(sim1_mod)

sim1

## # A tibble: 30 x 3
##        x     y    resid
##    <int> <dbl>    <dbl>
##  1     1  4.20 -2.07   
##  2     1  7.51  1.24   
##  3     1  2.13 -4.15   
##  4     2  8.99  0.665  
##  5     2 10.2   1.92   
##  6     2 11.3   2.97   
##  7     3  7.36 -3.02   
##  8     3 10.5   0.130  
##  9     3 10.5   0.136  
## 10     4 12.4   0.00763
## # ... with 20 more rows
…
   2  .

     data_grid()  .   x1 x2      .

          gather_predictions()   . gather_predictions()        spread_predictions().

         .

grid <- sim3 %>%
  data_grid(x1, x2) %>%
  gather_predictions(mod1, mod2)

grid

## # A tibble: 80 x 4
##    model    x1 x2     pred
##    <chr> <int> <fct> <dbl>
##  1 mod1      1 a      1.67
##  2 mod1      1 b      4.56
##  3 mod1      1 c      6.48
##  4 mod1      1 d      4.03
##  5 mod1      2 a      1.48
##  6 mod1      2 b      4.37
##  7 mod1      2 c      6.28
##  8 mod1      2 d      3.84
##  9 mod1      3 a      1.28
## 10 mod1      3 b      4.17
## # ... with 70 more rows
…
mod1 <- lm(y ~ x1 + x2, data = sim4)

mod2 <- lm(y ~ x1 * x2, data = sim4)

grid <- sim4 %>%
  data_grid(
    x1 = seq_range(x1, 5),
    x2 = seq_range(x2, 5)
  ) %>%
  gather_predictions(mod1, mod2)

grid

## # A tibble: 50 x 4
##    model    x1    x2   pred
##    <chr> <dbl> <dbl>  <dbl>
##  1 mod1   -1    -1    0.996
##  2 mod1   -1    -0.5 -0.395
##  3 mod1   -1     0   -1.79 
##  4 mod1   -1     0.5 -3.18 
##  5 mod1   -1     1   -4.57 
##  6 mod1   -0.5  -1    1.91 
##  7 mod1   -0.5  -0.5  0.516
##  8 mod1   -0.5   0   -0.875
##  9 mod1   -0.5   0.5 -2.27 
## 10 mod1   -0.5   1   -3.66 
## # ... with 40 more rows
…
